Sesión 2
…
Para leer estos archivos, usamos la función read_csv() del paquete readr.

read_csv("data/gapminder_comas.csv")

## Parsed with column specification:
## cols(
##   country = col_character(),
##   continent = col_character(),
##   year = col_double(),
##   lifeExp = col_double(),
##   pop = col_double(),
##   gdpPercap = col_double()
## )

## # A tibble: 1,704 x 6
##    country     continent  year lifeExp      pop gdpPercap
##    <chr>       <chr>     <dbl>   <dbl>    <dbl>     <dbl>
##  1 Afghanistan Asia       1952    28.8  8425333      779.
##  2 Afghanistan Asia       1957    30.3  9240934      821.
##  3 Afghanistan Asia       1962    32.0 10267083      853.
##  4 Afghanistan Asia       1967    34.0 11537966      836.
##  5 Afghanistan Asia       1972    36.1 13079460      740.
##  6 Afghanistan Asia       1977    38.4 14880372      786.
##  7 Afghanistan Asia       1982    39.9 12881816      978.
##  8 Afghanistan Asia       1987    40.8 13867957      852.
##  9 Afghanistan Asia       1992    41.7 16317921      649.
## 10 Afghanistan Asia       1997    41.8 22227415      635.
## # … with 1,694 more rows
…
## Parsed with column specification:
## cols(
##   country = col_character(),
##   continent = col_character(),
##   year = col_double(),
##   lifeExp = col_double(),
##   pop = col_double(),
##   gdpPercap = col_double()
## )

Vemos que volvemos a obtener el mensaje, pero esta vez no se nos muestran los datos. Esto sucede porque al asignarle un nombre, le hemos indicado a R que queremos acceder a los datos sólo cuando se lo indiquemos explícitamente. Para hacer ello, simplemente tipeamos el nombre que le asignamos al conjunto de datos.

datos_obtenidos_csv

## # A tibble: 1,704 x 6
##    country     continent  year lifeExp      pop gdpPercap
##    <chr>       <chr>     <dbl>   <dbl>    <dbl>     <dbl>
##  1 Afghanistan Asia       1952    28.8  8425333      779.
##  2 Afghanistan Asia       1957    30.3  9240934      821.
##  3 Afghanistan Asia       1962    32.0 10267083      853.
##  4 Afghanistan Asia       1967    34.0 11537966      836.
##  5 Afghanistan Asia       1972    36.1 13079460      740.
##  6 Afghanistan Asia       1977    38.4 14880372      786.
##  7 Afghanistan Asia       1982    39.9 12881816      978.
##  8 Afghanistan Asia       1987    40.8 13867957      852.
##  9 Afghanistan Asia       1992    41.7 16317921      649.
## 10 Afghanistan Asia       1997    41.8 22227415      635.
## # … with 1,694 more rows
…
Nuevamente, la función nos comunica mediante un mensaje qué tipo de columnas ha identificado.

Podemos inspeccionar el contenido de este conjunto de datos del mismo modo anterior.

datos_obtenidos_tsv

## # A tibble: 1,704 x 6
##    country     continent  year lifeExp      pop gdpPercap
##    <chr>       <chr>     <dbl>   <dbl>    <dbl>     <dbl>
##  1 Afghanistan Asia       1952    28.8  8425333      779.
##  2 Afghanistan Asia       1957    30.3  9240934      821.
##  3 Afghanistan Asia       1962    32.0 10267083      853.
##  4 Afghanistan Asia       1967    34.0 11537966      836.
##  5 Afghanistan Asia       1972    36.1 13079460      740.
##  6 Afghanistan Asia       1977    38.4 14880372      786.
##  7 Afghanistan Asia       1982    39.9 12881816      978.
##  8 Afghanistan Asia       1987    40.8 13867957      852.
##  9 Afghanistan Asia       1992    41.7 16317921      649.
## 10 Afghanistan Asia       1997    41.8 22227415      635.
## # … with 1,694 more rows
…
## [1] "datos_obtenidos_csv"          "datos_obtenidos_punto_y_coma"
## [3] "datos_obtenidos_tsv"

Descanso de 15 minutos

Lectura de datos excel

Para poder leer datos de excel, vamos a hacer uso del paquete readxl.

Recuerda que para cargar cualquier paquete, especificas su nombre sin comillas dentro de un llamado a la funcion library().

La función que nos permite leer archivos .xlsx es read_xlsx(). La usamos igual que en los casos anteriores.

## # A tibble: 1,704 x 6
##    country     continent  year lifeExp      pop gdpPercap
##    <chr>       <chr>     <dbl>   <dbl>    <dbl>     <dbl>
##  1 Afghanistan Asia       1952    28.8  8425333      779.
##  2 Afghanistan Asia       1957    30.3  9240934      821.
##  3 Afghanistan Asia       1962    32.0 10267083      853.
##  4 Afghanistan Asia       1967    34.0 11537966      836.
##  5 Afghanistan Asia       1972    36.1 13079460      740.
##  6 Afghanistan Asia       1977    38.4 14880372      786.
##  7 Afghanistan Asia       1982    39.9 12881816      978.
##  8 Afghanistan Asia       1987    40.8 13867957      852.
##  9 Afghanistan Asia       1992    41.7 16317921      649.
## 10 Afghanistan Asia       1997    41.8 22227415      635.
## # … with 1,694 more rows

Alternativamente, podemos usar la función read_excel(), que nos da el mismo resultado.

## # A tibble: 1,704 x 6
##    country     continent  year lifeExp      pop gdpPercap
##    <chr>       <chr>     <dbl>   <dbl>    <dbl>     <dbl>
##  1 Afghanistan Asia       1952    28.8  8425333      779.
##  2 Afghanistan Asia       1957    30.3  9240934      821.
##  3 Afghanistan Asia       1962    32.0 10267083      853.
##  4 Afghanistan Asia       1967    34.0 11537966      836.
##  5 Afghanistan Asia       1972    36.1 13079460      740.
##  6 Afghanistan Asia       1977    38.4 14880372      786.
##  7 Afghanistan Asia       1982    39.9 12881816      978.
##  8 Afghanistan Asia       1987    40.8 13867957      852.
##  9 Afghanistan Asia       1992    41.7 16317921      649.
## 10 Afghanistan Asia       1997    41.8 22227415      635.
## # … with 1,694 more rows

Lectura de archivos SPSS

Para leer archivos SPSS cargamos el paquete haven.

Como la extensión de los archivos es .sav podemos leerlos con la función read_sav().

## # A tibble: 122 x 8
##    SELECT UC0DD_CD UC0DD_DPTO UC0PP_CD UC0PP_PROV UC0DI_CD UC0DI_DIST   UC0P_OBS
##    <chr>  <chr>    <chr>      <chr>    <chr>      <chr>    <chr>        <chr>   
##  1 U0001  16       LORETO     01       MAYNAS     13       SAN JUAN BA… ""      
##  2 U0002  14       LAMBAYEQUE 03       LAMBAYEQUE 01       LAMBAYEQUE   ""      
##  3 U0003  15       LIMA       01       LIMA       40       SANTIAGO DE… ""      
##  4 U0004  15       LIMA       01       LIMA       13       JESUS MARIA  ""      
##  5 U0005  15       LIMA       01       LIMA       35       SAN MARTIN … ""      
##  6 U0006  15       LIMA       01       LIMA       40       SANTIAGO DE… ""      
##  7 U0007  15       LIMA       01       LIMA       21       PUEBLO LIBRE ""      
##  8 U0008  23       TACNA      01       TACNA      01       TACNA        ""      
##  9 U0009  10       HUANUCO    01       HUANUCO    01       HUANUCO      ""      
## 10 U0010  15       LIMA       01       LIMA       13       JESUS MARIA  ""      
## # … with 112 more rows

Alternativamente, podemos usar la función read_spss(), que nos da el mismo resultado.

## # A tibble: 122 x 8
##    SELECT UC0DD_CD UC0DD_DPTO UC0PP_CD UC0PP_PROV UC0DI_CD UC0DI_DIST   UC0P_OBS
##    <chr>  <chr>    <chr>      <chr>    <chr>      <chr>    <chr>        <chr>   
##  1 U0001  16       LORETO     01       MAYNAS     13       SAN JUAN BA… ""      
##  2 U0002  14       LAMBAYEQUE 03       LAMBAYEQUE 01       LAMBAYEQUE   ""      
##  3 U0003  15       LIMA       01       LIMA       40       SANTIAGO DE… ""      
##  4 U0004  15       LIMA       01       LIMA       13       JESUS MARIA  ""      
##  5 U0005  15       LIMA       01       LIMA       35       SAN MARTIN … ""      
##  6 U0006  15       LIMA       01       LIMA       40       SANTIAGO DE… ""      
##  7 U0007  15       LIMA       01       LIMA       21       PUEBLO LIBRE ""      
##  8 U0008  23       TACNA      01       TACNA      01       TACNA        ""      
##  9 U0009  10       HUANUCO    01       HUANUCO    01       HUANUCO      ""      
## 10 U0010  15       LIMA       01       LIMA       13       JESUS MARIA  ""      
## # … with 112 more rows
…
Si ya hemos cargado el paquete, basta con llamar al conjunto de datos usando su nombre.

## # A tibble: 53,940 x 10
##    carat cut       color clarity depth table price     x     y     z
##    <dbl> <ord>     <ord> <ord>   <dbl> <dbl> <int> <dbl> <dbl> <dbl>
##  1 0.23  Ideal     E     SI2      61.5    55   326  3.95  3.98  2.43
##  2 0.21  Premium   E     SI1      59.8    61   326  3.89  3.84  2.31
##  3 0.23  Good      E     VS1      56.9    65   327  4.05  4.07  2.31
##  4 0.290 Premium   I     VS2      62.4    58   334  4.2   4.23  2.63
##  5 0.31  Good      J     SI2      63.3    58   335  4.34  4.35  2.75
##  6 0.24  Very Good J     VVS2     62.8    57   336  3.94  3.96  2.48
##  7 0.24  Very Good I     VVS1     62.3    57   336  3.95  3.98  2.47
##  8 0.26  Very Good H     SI1      61.9    55   337  4.07  4.11  2.53
##  9 0.22  Fair      E     VS2      65.1    61   337  3.87  3.78  2.49
## 10 0.23  Very Good H     VS1      59.4    61   338  4     4.05  2.39
## # … with 53,930 more rows

## # A tibble: 574 x 6
##    date         pce    pop psavert uempmed unemploy
##    <date>     <dbl>  <dbl>   <dbl>   <dbl>    <dbl>
##  1 1967-07-01  507. 198712    12.6     4.5     2944
##  2 1967-08-01  510. 198911    12.6     4.7     2945
##  3 1967-09-01  516. 199113    11.9     4.6     2958
##  4 1967-10-01  512. 199311    12.9     4.9     3143
##  5 1967-11-01  517. 199498    12.8     4.7     3066
##  6 1967-12-01  525. 199657    11.8     4.8     3018
##  7 1968-01-01  531. 199808    11.7     5.1     2878
##  8 1968-02-01  534. 199920    12.3     4.5     3001
##  9 1968-03-01  544. 200056    11.7     4.1     2877
## 10 1968-04-01  544  200208    12.3     4.6     2709
## # … with 564 more rows

## # A tibble: 1,155 x 4
##      lat  long delta_long delta_lat
##    <dbl> <dbl>      <dbl>     <dbl>
##  1  29.7 -173.     -0.915   0.143  
##  2  30.7 -173.     -0.867   0.128  
##  3  31.7 -173.     -0.819   0.113  
##  4  32.7 -173.     -0.771   0.0980 
##  5  33.7 -173.     -0.723   0.0828 
##  6  34.7 -173.     -0.674   0.0675 
##  7  35.7 -173.     -0.626   0.0522 
##  8  36.7 -173.     -0.577   0.0369 
##  9  37.7 -173.     -0.529   0.0216 
## 10  38.7 -173.     -0.480   0.00635
## # … with 1,145 more rows
…
